%YAML 1.1
%TAG !u! tag:unity3d.com,2011:
--- !u!74 &7400000
AnimationClip:
  m_ObjectHideFlags: 0
  m_CorrespondingSourceObject: {fileID: 0}
  m_PrefabInstance: {fileID: 0}
  m_PrefabAsset: {fileID: 0}
  m_Name: Die
  serializedVersion: 6
  m_Legacy: 0
  m_Compressed: 0
  m_UseHighQualityCurve: 1
  m_RotationCurves: []
  m_CompressedRotationCurves: []
  m_EulerCurves: []
  m_PositionCurves: []
  m_ScaleCurves: []
  m_FloatCurves: []
  m_PPtrCurves:
  - curve:
    - time: 0
      value: {fileID: 21300000, guid: ae596553a2f931046ab70019fb34e5b5, type: 3}
    - time: 0.083333336
      value: {fileID: 21300000, guid: a3d2eef085416e74c974d69d3ea9610d, type: 3}
    - time: 0.13333334
      value: {fileID: 21300000, guid: a62464794ab28c8409c95a011124ec2d, type: 3}
    - time: 0.2
      value: {fileID: 21300000, guid: 43632cdba79d0b141be9826e6c4af968, type: 3}
    - time: 0.26666668
      value: {fileID: 21300000, guid: d731628da9fac484a97c24a618539c3f, type: 3}
    - time: 0.33333334
      value: {fileID: 21300000, guid: 17fcb04a2c0d90a4bb7019d55a027188, type: 3}
    - time: 0.38333333
      value: {fileID: 21300000, guid: a2613a7502937e442b51a5b7b9a104bc, type: 3}
    - time: 0.45
      value: {fileID: 21300000, guid: cf450571c6e145442ad3b18df7c65498, type: 3}
    - time: 0.5
      value: {fileID: 21300000, guid: 77d9a041e17b43b479932b8f1dd1a2eb, type: 3}
    - time: 0.5833333
      value: {fileID: 21300000, guid: af1cbc455ec78044e8aea17020596f86, type: 3}
    attribute: m_Sprite
    path: 
    classID: 212
    script: {fileID: 0}
  m_SampleRate: 60
  m_WrapMode: 0
  m_Bounds:
    m_Center: {x: 0, y: 0, z: 0}
    m_Extent: {x: 0, y: 0, z: 0}
  m_ClipBindingConstant:
    genericBindings:
    - serializedVersion: 2
      path: 0
      attribute: 0
      script: {fileID: 0}
      typeID: 212
      customType: 23
      isPPtrCurve: 1
    pptrCurveMapping:
    - {fileID: 21300000, guid: ae596553a2f931046ab70019fb34e5b5, type: 3}
    - {fileID: 21300000, guid: a3d2eef085416e74c974d69d3ea9610d, type: 3}
    - {fileID: 21300000, guid: a62464794ab28c8409c95a011124ec2d, type: 3}
    - {fileID: 21300000, guid: 43632cdba79d0b141be9826e6c4af968, type: 3}
    - {fileID: 21300000, guid: d731628da9fac484a97c24a618539c3f, type: 3}
    - {fileID: 21300000, guid: 17fcb04a2c0d90a4bb7019d55a027188, type: 3}
    - {fileID: 21300000, guid: a2613a7502937e442b51a5b7b9a104bc, type: 3}
    - {fileID: 21300000, guid: cf450571c6e145442ad3b18df7c65498, type: 3}
    - {fileID: 21300000, guid: 77d9a041e17b43b479932b8f1dd1a2eb, type: 3}
    - {fileID: 21300000, guid: af1cbc455ec78044e8aea17020596f86, type: 3}
  m_AnimationClipSettings:
    serializedVersion: 2
    m_AdditiveReferencePoseClip: {fileID: 0}
    m_AdditiveReferencePoseTime: 0
    m_StartTime: 0
    m_StopTime: 0.59999996
    m_OrientationOffsetY: 0
    m_Level: 0
    m_CycleOffset: 0
    m_HasAdditiveReferencePose: 0
    m_LoopTime: 0
    m_LoopBlend: 0
    m_LoopBlendOrientation: 0
    m_LoopBlendPositionY: 0
    m_LoopBlendPositionXZ: 0
    m_KeepOriginalOrientation: 0
    m_KeepOriginalPositionY: 1
    m_KeepOriginalPositionXZ: 0
    m_HeightFromFeet: 0
    m_Mirror: 0
  m_EditorCurves: []
  m_EulerEditorCurves: []
  m_HasGenericRootTransform: 0
  m_HasMotionFloatCurves: 0
  m_Events: []
