%YAML 1.1
%TAG !u! tag:unity3d.com,2011:
--- !u!74 &7400000
AnimationClip:
  m_ObjectHideFlags: 0
  m_CorrespondingSourceObject: {fileID: 0}
  m_PrefabInstance: {fileID: 0}
  m_PrefabAsset: {fileID: 0}
  m_Name: Attack
  serializedVersion: 6
  m_Legacy: 0
  m_Compressed: 0
  m_UseHighQualityCurve: 1
  m_RotationCurves: []
  m_CompressedRotationCurves: []
  m_EulerCurves: []
  m_PositionCurves: []
  m_ScaleCurves: []
  m_FloatCurves: []
  m_PPtrCurves:
  - curve:
    - time: 0
      value: {fileID: 21300000, guid: 1782aa8f45a738148ab04dda50ed11e3, type: 3}
    - time: 0.05
      value: {fileID: 21300000, guid: ffc50aee5be9f9a44a86218c5c93645d, type: 3}
    - time: 0.1
      value: {fileID: 21300000, guid: b2677d38b5e652043858ad62be60f294, type: 3}
    - time: 0.15
      value: {fileID: 21300000, guid: 99b489c95ef2d0f488885f60618e3574, type: 3}
    - time: 0.2
      value: {fileID: 21300000, guid: e3c6c69780c0d0a4fbfa133e4cdfc142, type: 3}
    - time: 0.25
      value: {fileID: 21300000, guid: 025fbd2b47d9e6a4b87d7c228db5d984, type: 3}
    - time: 0.3
      value: {fileID: 21300000, guid: 5d467ab245144bc4dbfa717d7e39218b, type: 3}
    - time: 0.35
      value: {fileID: 21300000, guid: d1e6d51a8880a1145b6d733bdac97773, type: 3}
    - time: 0.4
      value: {fileID: 21300000, guid: 3902b251bac839748ba59f2cc38a94c8, type: 3}
    - time: 0.45
      value: {fileID: 21300000, guid: 2f50da08a8caa9a49a8d5a19d28c1f2a, type: 3}
    - time: 0.5
      value: {fileID: 21300000, guid: 1782aa8f45a738148ab04dda50ed11e3, type: 3}
    attribute: m_Sprite
    path: 
    classID: 212
    script: {fileID: 0}
  m_SampleRate: 60
  m_WrapMode: 0
  m_Bounds:
    m_Center: {x: 0, y: 0, z: 0}
    m_Extent: {x: 0, y: 0, z: 0}
  m_ClipBindingConstant:
    genericBindings:
    - serializedVersion: 2
      path: 0
      attribute: 0
      script: {fileID: 0}
      typeID: 212
      customType: 23
      isPPtrCurve: 1
    pptrCurveMapping:
    - {fileID: 21300000, guid: 1782aa8f45a738148ab04dda50ed11e3, type: 3}
    - {fileID: 21300000, guid: ffc50aee5be9f9a44a86218c5c93645d, type: 3}
    - {fileID: 21300000, guid: b2677d38b5e652043858ad62be60f294, type: 3}
    - {fileID: 21300000, guid: 99b489c95ef2d0f488885f60618e3574, type: 3}
    - {fileID: 21300000, guid: e3c6c69780c0d0a4fbfa133e4cdfc142, type: 3}
    - {fileID: 21300000, guid: 025fbd2b47d9e6a4b87d7c228db5d984, type: 3}
    - {fileID: 21300000, guid: 5d467ab245144bc4dbfa717d7e39218b, type: 3}
    - {fileID: 21300000, guid: d1e6d51a8880a1145b6d733bdac97773, type: 3}
    - {fileID: 21300000, guid: 3902b251bac839748ba59f2cc38a94c8, type: 3}
    - {fileID: 21300000, guid: 2f50da08a8caa9a49a8d5a19d28c1f2a, type: 3}
    - {fileID: 21300000, guid: 1782aa8f45a738148ab04dda50ed11e3, type: 3}
  m_AnimationClipSettings:
    serializedVersion: 2
    m_AdditiveReferencePoseClip: {fileID: 0}
    m_AdditiveReferencePoseTime: 0
    m_StartTime: 0
    m_StopTime: 0.51666665
    m_OrientationOffsetY: 0
    m_Level: 0
    m_CycleOffset: 0
    m_HasAdditiveReferencePose: 0
    m_LoopTime: 0
    m_LoopBlend: 0
    m_LoopBlendOrientation: 0
    m_LoopBlendPositionY: 0
    m_LoopBlendPositionXZ: 0
    m_KeepOriginalOrientation: 0
    m_KeepOriginalPositionY: 1
    m_KeepOriginalPositionXZ: 0
    m_HeightFromFeet: 0
    m_Mirror: 0
  m_EditorCurves: []
  m_EulerEditorCurves: []
  m_HasGenericRootTransform: 0
  m_HasMotionFloatCurves: 0
  m_Events: []
